{
  "submodels": [
    {
      "id": "something_48c66017c",
      "modelType": "Submodel",
      "submodelElements": [
        {
          "contentType": "'VbrwFrYTU/fO7NnLxq   \t; \tMX.`10dB732`X5yRy=I56Ov9Us\t ;\t\t pRb~~hdw_C%2Zf=\"\"\t\t\t    \t\t\t \t \t\t \t  ; h=1t",
          "idShort": "something3fdd3eb4",
          "modelType": "Blob"
        }
      ]
    }
  ]
}