{
  "submodels": [
    {
      "id": "something_48c66017j",
      "modelType": "Submodel",
      "submodelElements": [
        {
          "idShort": "something3fdd3eb4",
          "modelType": "ReferenceElement"
        }
      ]
    }
  ]
}